Crisis UK trusts and foundations mailing
…
ewtrusts <- runquery(sql = 'select ew_class.ewclass, ew_charity.*
                            from ew_charity
                            join ew_class on ew_charity.regno = ew_class.regno
                            where ew_charity.orgtype = \'R\' and ew_class.ewclass = \'302\';')

Then copy selection barebones to my propensity table.

ewtrusts_prop <- ewtrusts %>% 
  select(regno, subno, name) %>% 
  tibble()

ewtrusts_prop %>% 
  print(n = 10)

## # A tibble: 56,056 x 3
##      regno subno name                                                           
##      <int> <int> <chr>                                                          
##  1 1171025     0 SYNEIDER MINISTRIES                                            
##  2 1171029     0 SMILES TO TANZANIA CHARITY                                     
##  3 1171030     0 THE GOOD SHEPHERD CHARITY                                      
##  4 1171031     0 THE PAROCHIAL CHURCH COUNCIL OF THE ECCLESIASTICAL PARISH OF A~
##  5 1171035     0 DEEP GLOBAL                                                    
##  6 1171039     0 TADCASTER VOLUNTEER CARS & SERVICES ASSOCIATION                
##  7 1171046     0 BRIMPSFIELD MUSIC SOCIETY                                      
##  8 1171059     0 BEAT TRIGEMINAL NEURALGIA                                      
##  9 1171061     0 FRIENDS OF STREET CHILDREN BANGLADESH                          
## 10 1171064     0 NOTTINGHAM CHRISTADELPHIAN ECCLESIA (JARVIS AVENUE HALL)       
## # ... with 56,046 more rows
…
